timestamp,comment-id,voter-id,vote
1485864160383,0,0,0
1485864229023,0,1,-1
1485864308678,0,2,-1
1485864337128,0,3,-1
1485864449531,0,4,-1
1485864509022,0,5,-1
1485864566204,0,6,-1
1485864694768,0,7,-1
1485864713647,0,8,-1
1485864759594,0,9,-1
1485864809216,0,10,-1
1485864866097,0,11,-1
1485864954435,0,12,-1
1485865036546,0,13,-1
1485865383733,0,14,-1
1485865772268,0,15,0
1485865954890,0,16,-1
1485866235514,0,17,-1
1485866816784,0,18,-1
1485867586687,0,19,-1
1485868310636,0,20,-1
1485868475352,0,21,-1
1485868528908,0,22,0
1485868823765,0,23,0
1485868827344,0,24,-1
1485869016863,0,25,-1
1485869778520,0,26,-1
1485870401192,0,27,-1
1485871228831,0,28,1
1485871399832,0,29,-1
1485872060297,0,30,-1
1485874501987,0,32,-1
1485874972322,0,33,-1
1485875219185,0,34,-1
1485875863695,0,35,-1
1485876018807,0,36,-1
1485877036939,0,37,-1
1485877157105,0,38,0
1485877503884,0,39,-1
1485877362719,0,40,-1
1485879299991,0,41,-1
1485879715415,0,42,-1
1485881053021,0,43,-1
1485881447054,0,44,0
1485884002375,0,45,-1
1485884298529,0,46,-1
1485888829842,0,47,-1
1485891019744,0,49,-1
1485891723960,0,51,-1
1485893568759,0,52,-1
1485894632194,0,53,0
1485894625697,0,54,-1
1485894925665,0,55,1
1485899884348,0,56,0
1485904435729,0,57,-1
1485905742742,0,58,-1
1485911149808,0,59,-1
1485915784275,0,60,0
1485915954447,0,61,0
1485919624512,0,62,-1
1485944077584,0,63,-1
1485947672477,0,64,-1
1485947840333,0,65,-1
1485962694485,0,68,-1
1485979268563,0,69,0
1486027500117,0,70,-1
1486041987690,0,71,-1
1486124769258,0,72,0
1486178596763,0,73,-1
1486387113606,0,74,-1
1486645795313,0,75,-1
1486645906847,0,76,-1
1486672396110,0,77,-1
1486905083656,0,78,-1
1485864731070,1,0,-1
1485864610711,1,1,-1
1485864400618,1,2,1
1485864468448,1,4,1
1485864504439,1,5,0
1485864559744,1,6,-1
1485864688940,1,7,-1
1485864706758,1,8,-1
1485864766001,1,9,-1
1485864794323,1,10,1
1485864891220,1,11,0
1485864944824,1,12,-1
1485865002994,1,13,-1
1485865370749,1,14,-1
1485865962026,1,16,-1
1485866800950,1,18,-1
1485867589689,1,19,1
1485868468463,1,21,-1
1485868521309,1,22,-1
1485868850362,1,23,0
1485868889720,1,24,-1
1485869026533,1,25,-1
1485869811098,1,26,-1
1485870404592,1,27,-1
1485871206337,1,28,-1
1485871407708,1,29,-1
1485872047975,1,30,-1
1485874529405,1,32,-1
1485875229588,1,34,-1
1485875894375,1,35,-1
1485875955774,1,36,-1
1485877053294,1,37,-1
1485877167843,1,38,0
1485877222553,1,39,1
1485877366767,1,40,1
1485879288577,1,41,-1
1485879739284,1,42,1
1485881065806,1,43,-1
1485881402884,1,44,1
1485884301405,1,46,-1
1485888835625,1,47,-1
1485890729732,1,48,0
1485891023275,1,49,-1
1485891585162,1,50,-1
1485891695222,1,51,-1
1485893562311,1,52,-1
1485894609119,1,53,-1
1485894596844,1,54,0
1485894959235,1,55,-1
1485899911352,1,56,-1
1485904441990,1,57,-1
1485905730000,1,58,-1
1485911165141,1,59,-1
1485915945088,1,61,1
1485919578565,1,62,-1
1485944185403,1,63,-1
1485947686224,1,64,-1
1485947782791,1,65,-1
1485962707749,1,68,-1
1485962707828,1,68,-1
1485979313045,1,69,-1
1486027519946,1,70,0
1486042001528,1,71,-1
1486124749535,1,72,-1
1486178533993,1,73,-1
1486386958164,1,74,-1
1486645806207,1,75,-1
1486645877223,1,76,-1
1485864735940,2,0,1
1485864729955,2,1,1
1485866475689,2,2,1
1485864712932,2,6,1
1485864722188,2,8,1
1485864762875,2,9,1
1485864798662,2,10,1
1485864848225,2,11,1
1485864946844,2,12,1
1485865013064,2,13,1
1485865347818,2,14,1
1485865819081,2,15,1
1485865966182,2,16,1
1485866832593,2,18,1
1485867575243,2,19,-1
1485868464541,2,21,1
1485868536596,2,22,1
1485868804577,2,23,1
1485868859368,2,24,1
1485869039956,2,25,1
1485869807018,2,26,1
1485870394248,2,27,0
1485871172761,2,28,0
1485871378020,2,29,1
1485872054690,2,30,1
1485872401735,2,31,0
1485874505547,2,32,1
1485875159122,2,34,-1
1485875877721,2,35,0
1485875998966,2,36,-1
1485877046512,2,37,1
1485877172015,2,38,0
1485877557219,2,39,1
1485877316748,2,40,1
1485879295583,2,41,1
1485879756144,2,42,1
1485881049936,2,43,-1
1485881455109,2,44,1
1485884310785,2,46,1
1485888876743,2,47,1
1485890726188,2,48,1
1485891011612,2,49,1
1485891569162,2,50,0
1485891716476,2,51,0
1485893401570,2,52,1
1485894614192,2,53,1
1485894631738,2,54,1
1485894954683,2,55,0
1485899867030,2,56,1
1485904477016,2,57,1
1485905696171,2,58,1
1485911080135,2,59,1
1485915820810,2,60,0
1485915958701,2,61,0
1485919612763,2,62,1
1485944098515,2,63,1
1485947681131,2,64,1
1485947803782,2,65,1
1485962755575,2,68,1
1485979191338,2,69,1
1486027466460,2,70,-1
1486042065264,2,71,1
1486124694398,2,72,1
1486178628513,2,73,1
1486386999929,2,74,1
1486645618518,2,75,1
1486645950501,2,76,1
1486672480961,2,77,-1
1486905288836,2,78,0
1485864981702,3,0,1
1485865233490,3,1,-1
1485866462606,3,2,1
1485865268507,3,6,0
1485864998787,3,9,-1
1485865188131,3,11,1
1485865019734,3,13,-1
1485865355473,3,14,0
1485865957388,3,16,1
1485866769136,3,18,1
1485867573341,3,19,1
1485868455058,3,21,0
1485868544671,3,22,-1
1485868843985,3,23,-1
1485868820907,3,24,1
1485869022898,3,25,-1
1485869782628,3,26,1
1485870428734,3,27,-1
1485871212536,3,28,-1
1485871386277,3,29,-1
1485872080935,3,30,-1
1485874524155,3,32,-1
1485874964757,3,33,1
1485875193104,3,34,1
1485875891231,3,35,1
1485875967347,3,36,1
1485877032401,3,37,0
1485877173960,3,38,0
1485877506955,3,39,1
1485877304704,3,40,1
1485879247978,3,41,1
1485879750360,3,42,1
1485881080771,3,43,0
1485881470984,3,44,1
1485883961152,3,45,0
1485884305706,3,46,1
1485888872461,3,47,1
1485890719258,3,48,0
1485890990662,3,49,1
1485891654002,3,51,1
1485893397015,3,52,-1
1485894580216,3,53,-1
1485894644556,3,54,0
1485894894734,3,55,1
1485899870994,3,56,1
1485904458056,3,57,1
1485905664607,3,58,-1
1485911145017,3,59,-1
1485915767550,3,60,1
1485915899946,3,61,1
1485919594564,3,62,-1
1485944190768,3,63,-1
1485947774696,3,65,1
1485952424717,3,66,1
1485962629776,3,68,1
1485962629821,3,68,1
1485979251297,3,69,-1
1486027438318,3,70,0
1486042007482,3,71,0
1486124771936,3,72,-1
1486178538833,3,73,0
1486387330033,3,74,1
1486645785959,3,75,-1
1486645944091,3,76,-1
1486672467807,3,77,-1
1486905311619,3,78,0
1485865457577,4,0,1
1485865238157,4,1,1
1485866471965,4,2,1
1485865282452,4,6,0
1485864989295,4,9,1
1485865225639,4,11,1
1485865027253,4,13,1
1485865391064,4,14,1
1485865791413,4,15,0
1485865973716,4,16,1
1485866808509,4,18,1
1485867596636,4,19,1
1485868408920,4,21,-1
1485868504411,4,22,0
1485868817969,4,23,0
1485868885490,4,24,1
1485869045339,4,25,1
1485869773316,4,26,0
1485870391697,4,27,0
1485871142359,4,28,1
1485871414835,4,29,-1
1485872099192,4,30,1
1485874465919,4,32,1
1485875150449,4,34,1
1485875900065,4,35,0
1485876024299,4,36,0
1485877077538,4,37,0
1485877160019,4,38,0
1485877537458,4,39,1
1485877345323,4,40,1
1485879291329,4,41,1
1485879729779,4,42,1
1485881071000,4,43,1
1485881399551,4,44,1
1485883898023,4,45,1
1485884308710,4,46,1
1485888883404,4,47,1
1485890833799,4,48,0
1485891000836,4,49,1
1485891637987,4,51,1
1485893545434,4,52,0
1485894625637,4,53,0
1485894605996,4,54,0
1485894970095,4,55,0
1485899914919,4,56,0
1485904454425,4,57,1
1485905708126,4,58,0
1485911153979,4,59,1
1485915831954,4,60,1
1485915890350,4,61,1
1485919521822,4,62,1
1485944218249,4,63,1
1485947788512,4,65,1
1485962730110,4,68,1
1485979274603,4,69,1
1486027539868,4,70,0
1486042050668,4,71,0
1486124746220,4,72,1
1486178565744,4,73,0
1486387195527,4,74,1
1486645663037,4,75,0
1486645898062,4,76,0
1485865479407,5,0,1
1485865251400,5,1,0
1485866457015,5,2,1
1485865275893,5,6,0
1485865048115,5,9,1
1485865252269,5,11,1
1485865069309,5,13,-1
1485865362415,5,14,1
1485865969254,5,16,0
1485866776314,5,18,-1
1485867582483,5,19,0
1485868462073,5,21,-1
1485868534221,5,22,1
1485868811826,5,23,-1
1485868875536,5,24,1
1485869014365,5,25,0
1485869830136,5,26,1
1485870364918,5,27,1
1485871218239,5,28,1
1485871390983,5,29,1
1485872013603,5,30,1
1485872405525,5,31,0
1485874534582,5,32,-1
1485875187540,5,34,1
1485875854835,5,35,1
1485876014377,5,36,1
1485877028339,5,37,0
1485877164044,5,38,0
1485877516167,5,39,1
1485877322537,5,40,0
1485879293824,5,41,1
1485879753612,5,42,1
1485881084818,5,43,1
1485881479663,5,44,1
1485883889067,5,45,1
1485884254144,5,46,1
1485888823499,5,47,0
1485890788265,5,48,-1
1485891007947,5,49,0
1485891681124,5,51,1
1485893359938,5,52,0
1485894564078,5,53,0
1485894648440,5,54,1
1485894929865,5,55,0
1485899879149,5,56,1
1485904420907,5,57,1
1485905714503,5,58,1
1485911088479,5,59,0
1485915827907,5,60,1
1485915887123,5,61,1
1485919562199,5,62,1
1485944112548,5,63,1
1485947800343,5,65,-1
1485952420446,5,66,1
1485962680393,5,68,-1
1485979257959,5,69,1
1486027454747,5,70,1
1486041994275,5,71,-1
1486124699606,5,72,0
1486178638581,5,73,1
1486387178235,5,74,1
1486645742066,5,75,1
1486645884512,5,76,1
1486672455397,5,77,0
1486905263005,5,78,-1
1485865489341,6,0,1
1485865497478,6,1,1
1485866480422,6,2,1
1485865310151,6,6,1
1485865633111,6,9,1
1485865475247,6,11,1
1485865377545,6,14,1
1485865781366,6,15,1
1485865964488,6,16,1
1485866836823,6,18,1
1485867592013,6,19,1
1485868482551,6,21,1
1485868508594,6,22,1
1485868837376,6,23,1
1485868837964,6,24,1
1485869787968,6,26,1
1485870381478,6,27,0
1485871200820,6,28,1
1485871403440,6,29,1
1485872072911,6,30,1
1485872395140,6,31,1
1485874461433,6,32,1
1485875164765,6,34,1
1485875858311,6,35,1
1485875963279,6,36,-1
1485876571119,6,37,-1
1485877165812,6,38,0
1485877511028,6,39,1
1485877339508,6,40,1
1485879284932,6,41,0
1485879725381,6,42,1
1485881058840,6,43,1
1485881474836,6,44,1
1485883997226,6,45,0
1485884259071,6,46,1
1485888762654,6,47,1
1485890846183,6,48,1
1485891021547,6,49,1
1485891689972,6,51,1
1485893405497,6,52,1
1485894573931,6,53,1
1485894592434,6,54,1
1485894914114,6,55,1
1485899905804,6,56,1
1485904415251,6,57,1
1485905753763,6,58,1
1485911126776,6,59,1
1485915841745,6,60,1
1485915950374,6,61,1
1485919558055,6,62,1
1485944159069,6,63,-1
1485947808895,6,65,1
1485952328291,6,66,1
1485962775889,6,68,1
1485979308006,6,69,1
1486027459539,6,70,0
1486041943874,6,71,1
1486124760930,6,72,1
1486178632109,6,73,1
1486387074623,6,74,-1
1486645707003,6,75,1
1486645941205,6,76,1
1486905280871,6,78,1
1485866692978,7,0,-1
1485866815393,7,1,0
1485866441049,7,2,1
1485866080777,7,6,1
1485865969537,7,9,1
1485866360979,7,11,1
1485865983079,7,16,1
1485866790770,7,18,-1
1485867565010,7,19,1
1485868457840,7,21,1
1485868513852,7,22,1
1485868832063,7,23,0
1485868831850,7,24,1
1485869050209,7,25,-1
1485869824775,7,26,1
1485870414559,7,27,0
1485871184878,7,28,-1
1485871396081,7,29,1
1485872091507,7,30,1
1485874491755,7,32,-1
1485875172298,7,34,1
1485875885953,7,35,1
1485875975957,7,36,1
1485877056867,7,37,-1
1485877170537,7,38,0
1485877522205,7,39,1
1485877354088,7,40,1
1485879303892,7,41,1
1485879747123,7,42,1
1485881075816,7,43,1
1485881452176,7,44,1
1485883854155,7,45,1
1485884261533,7,46,1
1485888856071,7,47,1
1485891002183,7,49,1
1485891761313,7,51,1
1485893346155,7,52,1
1485894620214,7,53,1
1485894583258,7,54,1
1485894890198,7,55,1
1485899927141,7,56,1
1485904399594,7,57,1
1485905757943,7,58,1
1485911094594,7,59,1
1485915792602,7,60,1
1485915925492,7,61,1
1485919549429,7,62,-1
1485944034953,7,63,1
1485947794791,7,65,1
1485962648164,7,68,-1
1485979177302,7,69,-1
1486027450073,7,70,0
1486041896163,7,71,1
1486124711998,7,72,0
1486178588372,7,73,-1
1486387347598,7,74,1
1486645691021,7,75,1
1486645921343,7,76,1
1486672462353,7,77,1
1486905266104,7,78,1
1485866677472,8,0,0
1485866820123,8,1,1
1485866488890,8,2,0
1485866795922,8,6,0
1485866297109,8,9,1
1485866371619,8,11,0
1486386499523,8,16,0
1485866829401,8,18,-1
1485867551515,8,19,0
1485868446208,8,21,-1
1485868920329,8,22,0
1485868827665,8,23,0
1485868856666,8,24,0
1485869037323,8,25,0
1485869800419,8,26,0
1485870421678,8,27,0
1485871167407,8,28,-1
1485871422949,8,29,0
1485872005376,8,30,0
1485872399293,8,31,0
1485874520130,8,32,1
1485875204162,8,34,0
1485875870614,8,35,-1
1485876010332,8,36,1
1485876563486,8,37,0
1485877153421,8,38,0
1485877493253,8,39,0
1485877313282,8,40,0
1485879276590,8,41,1
1485879969688,8,42,1
1485881040268,8,43,0
1485881468905,8,44,1
1485883956309,8,45,0
1485884247992,8,46,1
1485888752571,8,47,0
1485890826455,8,48,0
1485891033647,8,49,0
1485891736189,8,51,1
1485893555338,8,52,1
1485894658229,8,53,0
1485894620704,8,54,1
1485894948508,8,55,0
1485899891820,8,56,1
1485904407169,8,57,1
1485905683270,8,58,0
1485911160890,8,59,1
1485915810520,8,60,1
1485915969047,8,61,1
1485919515842,8,62,1
1485944015819,8,63,-1
1485947833195,8,65,-1
1485962625248,8,67,1
1485962625350,8,68,1
1485979241561,8,69,-1
1486027447023,8,70,0
1486041966078,8,71,0
1486124707336,8,72,0
1486178647170,8,73,-1
1486387169926,8,74,1
1486645680764,8,75,0
1486645938138,8,76,1
1486905310075,8,78,0
1485866738096,9,0,1
1485866822489,9,1,1
1485869494301,9,2,1
1485866800518,9,6,1
1485872012865,9,9,1
1485867372492,9,11,1
1486386607593,9,16,1
1485866819885,9,18,1
1485867556486,9,19,-1
1485868484104,9,21,1
1485868539000,9,22,1
1485868801873,9,23,0
1485868840121,9,24,1
1485869753624,9,26,1
1485870360369,9,27,0
1485871189265,9,28,-1
1485871373690,9,29,-1
1485872042155,9,30,-1
1485874468668,9,32,1
1485874957016,9,33,1
1485875180140,9,34,0
1485875881293,9,35,-1
1485876001563,9,36,1
1485877039951,9,37,-1
1485877175314,9,38,0
1485877498169,9,39,1
1485877325400,9,40,1
1485879306850,9,41,1
1485879734133,9,42,1
1485881073558,9,43,1
1485881458635,9,44,1
1485884228308,9,46,1
1485888803467,9,47,-1
1485890830065,9,48,1
1485890997052,9,49,1
1485891673863,9,51,1
1485893365661,9,52,1
1485894559475,9,53,1
1485894636720,9,54,0
1485894975625,9,55,0
1485899907945,9,56,1
1485904480822,9,57,-1
1485905692510,9,58,-1
1485911141413,9,59,-1
1485915972139,9,61,1
1485919617505,9,62,-1
1485944193480,9,63,-1
1485947762478,9,65,1
1485952321674,9,66,-1
1485962748443,9,68,1
1485979278722,9,69,-1
1486027505039,9,70,0
1486041924110,9,71,1
1486124727187,9,72,1
1486178556572,9,73,1
1486386946782,9,74,-1
1486645651929,9,75,0
1486645872562,9,76,0
1486672431770,9,77,0
1486905297951,9,78,0
1490648131095,10,0,0
1485907969562,10,2,1
1485894238832,10,6,1
1486674655510,10,9,1
1485961299889,10,11,0
1486386604847,10,16,1
1485951157748,10,39,1
1486052201853,10,44,1
1485889074005,10,47,1
1485890739730,10,48,1
1485890995338,10,49,1
1485891615523,10,50,1
1485891677353,10,51,1
1485893387379,10,52,1
1485894660862,10,53,-1
1485894628645,10,54,1
1485894937746,10,55,0
1485899888041,10,56,1
1485904447397,10,57,-1
1485905688301,10,58,1
1485911098771,10,59,1
1485915835151,10,60,1
1485915901710,10,61,1
1485919571223,10,62,1
1485944087516,10,63,1
1485947836636,10,65,1
1485962743425,10,68,1
1485979254775,10,69,1
1486027546314,10,70,0
1486041919990,10,71,0
1486124752184,10,72,1
1486178600748,10,73,1
1486387002043,10,74,1
1486645773141,10,75,1
1486645895265,10,76,1
1486672488141,10,77,1
1486905284245,10,78,0
1485907978483,11,2,-1
1485894252747,11,6,0
1486674684601,11,9,1
1485961349238,11,11,0
1486386906233,11,16,1
1485951106466,11,39,-1
1486052212056,11,44,-1
1485889421567,11,47,1
1485890712982,11,48,1
1485891037866,11,49,0
1485891595440,11,50,-1
1485891750063,11,51,-1
1485893378267,11,52,-1
1485894669586,11,53,0
1485894612211,11,54,1
1485894910057,11,55,-1
1485899862840,11,56,1
1485904471149,11,57,-1
1485905654723,11,58,0
1485911108283,11,59,1
1485915934930,11,61,1
1485919602146,11,62,1
1485943977070,11,63,1
1485947751112,11,65,1
1485962660903,11,68,-1
1485962660907,11,68,-1
1485962661011,11,68,-1
1485979225407,11,69,1
1486027554497,11,70,0
1486042041257,11,71,0
1486124735089,11,72,0
1486178546289,11,73,1
1486387307235,11,74,-1
1486645736674,11,75,1
1486645912837,11,76,1
1486672448219,11,77,1
1486905304748,11,78,0
1485907965789,12,2,-1
1485894245275,12,6,0
1486674688271,12,9,1
1485961305736,12,11,1
1486386728966,12,16,1
1485951152472,12,39,-1
1486052173264,12,44,-1
1485889450425,12,47,1
1485890735417,12,48,0
1485891014812,12,49,0
1485891663374,12,51,1
1485893415858,12,52,-1
1485894438343,12,53,-1
1485894600172,12,54,1
1485894965526,12,55,-1
1485899931800,12,56,1
1485904429703,12,57,1
1485905672877,12,58,1
1485911115523,12,59,-1
1485915825362,12,60,1
1485915927884,12,61,1
1485919542784,12,62,1
1485944044173,12,63,1
1485947819950,12,65,1
1485952403395,12,66,1
1485962639899,12,68,-1
1485979303244,12,69,0
1486027464120,12,70,0
1486041978980,12,71,0
1486124725222,12,72,-1
1486178552414,12,73,-1
1486387349473,12,74,1
1486645636414,12,75,1
1486645901375,12,76,1
1486672485872,12,77,1
1486674692528,13,9,1
1485961313837,13,11,1
1486386635589,13,16,0
1485951113557,13,39,1
1486052193366,13,44,1
1485910421316,13,47,1
1487745875062,13,52,1
1485909725713,13,53,1
1485911133571,13,59,1
1485915964208,13,61,1
1485919529798,13,62,1
1485944171359,13,63,1
1485947757050,13,65,-1
1485952298399,13,66,1
1485962720368,13,68,1
1485962720395,13,68,1
1485979282106,13,69,1
1486027480432,13,70,0
1486041875680,13,71,1
1486124756449,13,72,-1
1486178614090,13,73,1
1486387240376,13,74,-1
1486645723371,13,75,1
1486645892341,13,76,1
1486905274493,13,78,-1
1486674652438,14,9,-1
1485961269912,14,11,0
1486386599127,14,16,1
1485951132380,14,39,-1
1486052197659,14,44,-1
1486386361073,14,47,1
1487745885404,14,52,-1
1485915562398,14,53,-1
1485911283432,14,59,1
1485915851092,14,60,-1
1485915922076,14,61,-1
1485919590536,14,62,1
1485944135046,14,63,1
1485947770234,14,65,1
1485952412484,14,66,-1
1485962701641,14,68,1
1485979202215,14,69,1
1486027530601,14,70,0
1486041935471,14,71,1
1486124765080,14,72,-1
1486178609403,14,73,1
1486387356877,14,74,1
1486645609248,14,75,1
1486645947152,14,76,1
1486905295800,14,78,0
1490648099561,15,0,1
1486674661187,15,9,-1
1485961233590,15,11,1
1486386742455,15,16,0
1485951140389,15,39,1
1486052162920,15,44,0
1486386345277,15,47,-1
1487745899617,15,52,1
1485915567485,15,53,-1
1485911509761,15,59,1
1485915941340,15,61,1
1485919637086,15,62,-1
1485944060789,15,63,-1
1485947854352,15,65,-1
1485962767016,15,68,-1
1485979231856,15,69,-1
1486027490538,15,70,1
1486042060606,15,71,1
1486124717827,15,72,-1
1486178574179,15,73,-1
1486387131949,15,74,0
1486645760305,15,75,0
1486645927884,15,76,0
1490648128475,16,0,0
1486674668669,16,9,-1
1485961286914,16,11,1
1486386509018,16,16,1
1485951147537,16,39,1
1486052186809,16,44,-1
1486386354514,16,47,1
1487745905238,16,52,1
1485979390758,16,53,1
1488134843659,16,61,1
1485948091434,16,65,1
1485952434936,16,66,1
1485962738438,16,68,1
1485979248400,16,69,1
1486027515127,16,70,1
1486042019815,16,71,1
1486124743286,16,72,1
1486178625242,16,73,1
1486387354268,16,74,1
1486645627097,16,75,1
1486645925007,16,76,1
1486672423827,16,77,1
1486905086212,16,78,1
